%YAML 1.1
%TAG !u! tag:unity3d.com,2011:
--- !u!114 &11400000
MonoBehaviour:
  m_ObjectHideFlags: 0
  m_CorrespondingSourceObject: {fileID: 0}
  m_PrefabInstance: {fileID: 0}
  m_PrefabAsset: {fileID: 0}
  m_GameObject: {fileID: 0}
  m_Enabled: 1
  m_EditorHideFlags: 0
  m_Script: {fileID: 11500000, guid: 5625f42023b671540bc3a418becf3cf8, type: 3}
  m_Name: One
  m_EditorClassIdentifier: 
  bpm: 80
  ApproachRate: 2
  SongClip: {fileID: 8300000, guid: bbb6be48e0d414842a9d56fcc8a2152e, type: 3}
  SongText: {fileID: 4900000, guid: 909fdadd79c9e8045b6224c6a63d9963, type: 3}
